//Symbol Name		Page Address
//----------------	------------
//	FIN                     3112
//	GRADE                   311A
//	GR_A                    310B
//	GR_B                    310D
//	GR_C                    310F
//	GR_F                    3111
//	REG7                    3115
//	RES1                    3116
//	RES2                    3117
//	RES3                    3118
//	RES4                    3119
//	RESULTS                 3100
