(0000) 3300  0011001100000000 (   1)                 .ORIG x3300
(3300) 3FFE  0011111111111110 (   3)                 ST    R7 x32FF
(3301) A205  1010001000000101 (   5)                 LDI   R1 KBSR
(3302) 2405  0010010000000101 (   6)                 LD    R2 IVAL
(3303) 1242  0001001001000010 (   7)                 ADD   R1 R1 R2
(3304) B202  1011001000000010 (   8)                 STI   R1 KBSR
(3305) 2203  0010001000000011 (  10)                 LD    R1 UP2
(3306) C040  1100000001000000 (  11)                 JMP   R1
(3307) FE00  1111111000000000 (  13) KBSR            .FILL xFE00
(3308) 4000  0100000000000000 (  14) IVAL            .FILL x4000
(3309) 3400  0011010000000000 (  15) UP2             .FILL x3400
