3100 ; 0011000100000000
3107 ; 0011000100000111
2819 ; 0010100000011001
0110 ; 0000000100010000
0311 ; 0000001100010001
0110 ; 0000000100010000
1110 ; 0001000100010000
11B1 ; 0001000110110001
0019 ; 0000000000011001
0007 ; 0000000000000111
0004 ; 0000000000000100